{
  "uid" : "4b4757e66a1912dae1a509f688f20b0f",
  "name" : "categories",
  "children" : [ {
    "name" : "Test defects",
    "children" : [ {
      "name" : "Step \"the result \"8\" should be displayed\" is not defined. You can ignore this error by setting\n                                              cucumberOpts.ignoreUndefinedDefinitions as true.",
      "children" : [ {
        "name" : "the result \"8\" should be displayed",
        "uid" : "6ac91bb6792dd31e",
        "parentUid" : "21b2946ed344b5278980a2d1bc78af34",
        "status" : "broken",
        "time" : {
          "start" : 1545687361750,
          "stop" : 1545687361750,
          "duration" : 0
        },
        "flaky" : true,
        "parameters" : [ "" ]
      } ],
      "uid" : "21b2946ed344b5278980a2d1bc78af34"
    }, {
      "name" : "Step \"the result \"2\" should be displayed\" is not defined. You can ignore this error by setting\n                                              cucumberOpts.ignoreUndefinedDefinitions as true.",
      "children" : [ {
        "name" : "the result \"2\" should be displayed",
        "uid" : "98bccd13626ed90c",
        "parentUid" : "4c142368c52c3406da1630fd78b22da4",
        "status" : "broken",
        "time" : {
          "start" : 1545687361760,
          "stop" : 1545687361761,
          "duration" : 1
        },
        "flaky" : true,
        "parameters" : [ "" ]
      } ],
      "uid" : "4c142368c52c3406da1630fd78b22da4"
    }, {
      "name" : "Step \"the result \"15\" should be displayed\" is not defined. You can ignore this error by setting\n                                              cucumberOpts.ignoreUndefinedDefinitions as true.",
      "children" : [ {
        "name" : "the result \"15\" should be displayed",
        "uid" : "946234a9fddc7410",
        "parentUid" : "17d5c1501bfe8ecc8f919b1f11aa277d",
        "status" : "broken",
        "time" : {
          "start" : 1545687361769,
          "stop" : 1545687361769,
          "duration" : 0
        },
        "flaky" : true,
        "parameters" : [ "" ]
      } ],
      "uid" : "17d5c1501bfe8ecc8f919b1f11aa277d"
    }, {
      "name" : "Step \"the result \"3\" should be displayed\" is not defined. You can ignore this error by setting\n                                              cucumberOpts.ignoreUndefinedDefinitions as true.",
      "children" : [ {
        "name" : "the result \"3\" should be displayed",
        "uid" : "17c235dc3cb9f9c",
        "parentUid" : "073f9425d97ea568994eec052bb1e8aa",
        "status" : "broken",
        "time" : {
          "start" : 1545687361775,
          "stop" : 1545687361776,
          "duration" : 1
        },
        "flaky" : true,
        "parameters" : [ "" ]
      } ],
      "uid" : "073f9425d97ea568994eec052bb1e8aa"
    } ],
    "uid" : "bdbf199525818fae7a8651db9eafe741"
  } ]
}