{
  "uid" : "83edc06c07f9ae9e47eb6dd1b683e4e2",
  "name" : "packages",
  "children" : [ {
    "name" : "To test the add & subtract feature of mobile calculator app Add two numbers",
    "children" : [ {
      "name" : "I am on my mobile calculator app",
      "uid" : "53e1b2499e9749ab",
      "parentUid" : "33a3eecc80582f7cde90e8645db46cb1",
      "status" : "passed",
      "time" : {
        "start" : 1545687361746,
        "stop" : 1545687361749,
        "duration" : 3
      },
      "flaky" : true,
      "parameters" : [ "" ]
    }, {
      "name" : "I add \"3\" and \"5\"",
      "uid" : "6681a5a395d0a1f8",
      "parentUid" : "33a3eecc80582f7cde90e8645db46cb1",
      "status" : "passed",
      "time" : {
        "start" : 1545687361749,
        "stop" : 1545687361749,
        "duration" : 0
      },
      "flaky" : false,
      "parameters" : [ "" ]
    }, {
      "name" : "the result \"8\" should be displayed",
      "uid" : "6ac91bb6792dd31e",
      "parentUid" : "33a3eecc80582f7cde90e8645db46cb1",
      "status" : "broken",
      "time" : {
        "start" : 1545687361750,
        "stop" : 1545687361750,
        "duration" : 0
      },
      "flaky" : true,
      "parameters" : [ "" ]
    } ],
    "uid" : "33a3eecc80582f7cde90e8645db46cb1"
  }, {
    "name" : "To test the add & subtract feature of mobile calculator app Subtract two numbers",
    "children" : [ {
      "name" : "the result \"2\" should be displayed",
      "uid" : "98bccd13626ed90c",
      "parentUid" : "313d7e47d363039102bf14e637505880",
      "status" : "broken",
      "time" : {
        "start" : 1545687361760,
        "stop" : 1545687361761,
        "duration" : 1
      },
      "flaky" : true,
      "parameters" : [ "" ]
    }, {
      "name" : "I subtract \"7\" from \"5\"",
      "uid" : "fda2991ae33f0c22",
      "parentUid" : "313d7e47d363039102bf14e637505880",
      "status" : "passed",
      "time" : {
        "start" : 1545687361760,
        "stop" : 1545687361760,
        "duration" : 0
      },
      "flaky" : true,
      "parameters" : [ "" ]
    } ],
    "uid" : "313d7e47d363039102bf14e637505880"
  }, {
    "name" : "To test the add & subtract feature of mobile calculator app Multiply two numbers",
    "children" : [ {
      "name" : "I multiply \"3\" with \"5\"",
      "uid" : "2ee63c34c81ebdd1",
      "parentUid" : "bb7208cf043e96cb2d5f59e540a5c780",
      "status" : "passed",
      "time" : {
        "start" : 1545687361763,
        "stop" : 1545687361763,
        "duration" : 0
      },
      "flaky" : true,
      "parameters" : [ "" ]
    }, {
      "name" : "the result \"15\" should be displayed",
      "uid" : "946234a9fddc7410",
      "parentUid" : "bb7208cf043e96cb2d5f59e540a5c780",
      "status" : "broken",
      "time" : {
        "start" : 1545687361769,
        "stop" : 1545687361769,
        "duration" : 0
      },
      "flaky" : true,
      "parameters" : [ "" ]
    } ],
    "uid" : "bb7208cf043e96cb2d5f59e540a5c780"
  }, {
    "name" : "To test the add & subtract feature of mobile calculator app Divide two numbers",
    "children" : [ {
      "name" : "I divide \"9\" with \"3\"",
      "uid" : "8d3947bccb2d45a3",
      "parentUid" : "df43b1078b1a149fac8483ed0600a302",
      "status" : "passed",
      "time" : {
        "start" : 1545687361774,
        "stop" : 1545687361775,
        "duration" : 1
      },
      "flaky" : true,
      "parameters" : [ "" ]
    }, {
      "name" : "the result \"3\" should be displayed",
      "uid" : "17c235dc3cb9f9c",
      "parentUid" : "df43b1078b1a149fac8483ed0600a302",
      "status" : "broken",
      "time" : {
        "start" : 1545687361775,
        "stop" : 1545687361776,
        "duration" : 1
      },
      "flaky" : true,
      "parameters" : [ "" ]
    } ],
    "uid" : "df43b1078b1a149fac8483ed0600a302"
  }, {
    "name" : "To test the add & subtract feature of mobile calculator app Clear the text",
    "children" : [ {
      "name" : "I click on AC button",
      "uid" : "fd93e3f15a4f74b7",
      "parentUid" : "4bc186ed721d9bf5210177989a93fe4a",
      "status" : "passed",
      "time" : {
        "start" : 1545687361778,
        "stop" : 1545687361778,
        "duration" : 0
      },
      "flaky" : false,
      "parameters" : [ "" ]
    }, {
      "name" : "I add \"8\" and \"7\"",
      "uid" : "8f2977d174cdf5c6",
      "parentUid" : "4bc186ed721d9bf5210177989a93fe4a",
      "status" : "passed",
      "time" : {
        "start" : 1545687361778,
        "stop" : 1545687361778,
        "duration" : 0
      },
      "flaky" : true,
      "parameters" : [ "" ]
    }, {
      "name" : "the result should be cleared",
      "uid" : "ab1804f160cbafe6",
      "parentUid" : "4bc186ed721d9bf5210177989a93fe4a",
      "status" : "passed",
      "time" : {
        "start" : 1545687361778,
        "stop" : 1545687361778,
        "duration" : 0
      },
      "flaky" : false,
      "parameters" : [ "" ]
    } ],
    "uid" : "4bc186ed721d9bf5210177989a93fe4a"
  }, {
    "name" : "ios app automation login page",
    "children" : [ {
      "name" : "WebdriverIO and Appium, when interacting with a login form",
      "uid" : "5acf5906ca2a5b0b",
      "parentUid" : "32904fac5a3d53686cd20d3b72f580d2",
      "status" : "passed",
      "time" : {
        "start" : 1545912541364,
        "stop" : 1545912561381,
        "duration" : 20017
      },
      "flaky" : false,
      "parameters" : [ "iPhone 6-12.1" ]
    }, {
      "name" : "should be able login successfully",
      "uid" : "b3a95e087c550f3d",
      "parentUid" : "32904fac5a3d53686cd20d3b72f580d2",
      "status" : "passed",
      "time" : {
        "start" : 1545912561382,
        "stop" : 1545912561986,
        "duration" : 604
      },
      "flaky" : false,
      "parameters" : [ "iPhone 6-12.1" ]
    } ],
    "uid" : "32904fac5a3d53686cd20d3b72f580d2"
  } ]
}