"Status","Name","Duration in ms","Description"
"broken","To test the add & subtract feature of mobile calculator app Add two numbers.the result ""8"" should be displayed","0",""
"passed","To test the add & subtract feature of mobile calculator app Add two numbers.I am on my mobile calculator app","3",""
"broken","To test the add & subtract feature of mobile calculator app Divide two numbers.the result ""3"" should be displayed","1",""
"passed","To test the add & subtract feature of mobile calculator app Clear the text.I click on AC button","0",""
"passed","To test the add & subtract feature of mobile calculator app Multiply two numbers.I multiply ""3"" with ""5""","0",""
"passed","To test the add & subtract feature of mobile calculator app Divide two numbers.I divide ""9"" with ""3""","1",""
"broken","To test the add & subtract feature of mobile calculator app Subtract two numbers.the result ""2"" should be displayed","1",""
"passed","ios app automation login page.WebdriverIO and Appium, when interacting with a login form","20017",""
"passed","ios app automation login page.should be able login successfully","604",""
"passed","To test the add & subtract feature of mobile calculator app Add two numbers.I add ""3"" and ""5""","0",""
"passed","To test the add & subtract feature of mobile calculator app Clear the text.I add ""8"" and ""7""","0",""
"broken","To test the add & subtract feature of mobile calculator app Multiply two numbers.the result ""15"" should be displayed","0",""
"passed","To test the add & subtract feature of mobile calculator app Clear the text.the result should be cleared","0",""
"passed","To test the add & subtract feature of mobile calculator app Subtract two numbers.I subtract ""7"" from ""5""","0",""
