{
  "8058288b62762dea84e2113748409952" : {
    "statistic" : {
      "failed" : 0,
      "broken" : 0,
      "skipped" : 0,
      "passed" : 1,
      "unknown" : 0,
      "total" : 1
    },
    "items" : [ {
      "uid" : "8f2977d174cdf5c6",
      "status" : "passed",
      "time" : {
        "start" : 1545687361778,
        "stop" : 1545687361778,
        "duration" : 0
      }
    } ]
  },
  "f38bdea227ba2d95e873323ab6430e82" : {
    "statistic" : {
      "failed" : 0,
      "broken" : 0,
      "skipped" : 0,
      "passed" : 1,
      "unknown" : 0,
      "total" : 1
    },
    "items" : [ {
      "uid" : "fda2991ae33f0c22",
      "status" : "passed",
      "time" : {
        "start" : 1545687361760,
        "stop" : 1545687361760,
        "duration" : 0
      }
    } ]
  },
  "cc32b57d7659ffe21cf11b313ae1dd0d" : {
    "statistic" : {
      "failed" : 0,
      "broken" : 0,
      "skipped" : 0,
      "passed" : 1,
      "unknown" : 0,
      "total" : 1
    },
    "items" : [ {
      "uid" : "ab1804f160cbafe6",
      "status" : "passed",
      "time" : {
        "start" : 1545687361778,
        "stop" : 1545687361778,
        "duration" : 0
      }
    } ]
  },
  "b46d5d91d08a5b55aec6e0198a4a643a" : {
    "statistic" : {
      "failed" : 0,
      "broken" : 1,
      "skipped" : 0,
      "passed" : 0,
      "unknown" : 0,
      "total" : 1
    },
    "items" : [ {
      "uid" : "98bccd13626ed90c",
      "status" : "broken",
      "statusDetails" : "Step \"the result \"2\" should be displayed\" is not defined. You can ignore this error by setting\n                                              cucumberOpts.ignoreUndefinedDefinitions as true.",
      "time" : {
        "start" : 1545687361760,
        "stop" : 1545687361761,
        "duration" : 1
      }
    } ]
  },
  "edce1a1b7a7b2a3da3ce02af062ae8ef" : {
    "statistic" : {
      "failed" : 0,
      "broken" : 1,
      "skipped" : 0,
      "passed" : 0,
      "unknown" : 0,
      "total" : 1
    },
    "items" : [ {
      "uid" : "6ac91bb6792dd31e",
      "status" : "broken",
      "statusDetails" : "Step \"the result \"8\" should be displayed\" is not defined. You can ignore this error by setting\n                                              cucumberOpts.ignoreUndefinedDefinitions as true.",
      "time" : {
        "start" : 1545687361750,
        "stop" : 1545687361750,
        "duration" : 0
      }
    } ]
  },
  "59e82df4e3ea627cbf4ab2358ac02483" : {
    "statistic" : {
      "failed" : 0,
      "broken" : 0,
      "skipped" : 0,
      "passed" : 1,
      "unknown" : 0,
      "total" : 1
    },
    "items" : [ {
      "uid" : "8d3947bccb2d45a3",
      "status" : "passed",
      "time" : {
        "start" : 1545687361774,
        "stop" : 1545687361775,
        "duration" : 1
      }
    } ]
  },
  "cafc884d89748e4f8d3d8d2e019ef482" : {
    "statistic" : {
      "failed" : 0,
      "broken" : 0,
      "skipped" : 0,
      "passed" : 1,
      "unknown" : 0,
      "total" : 1
    },
    "items" : [ {
      "uid" : "fd93e3f15a4f74b7",
      "status" : "passed",
      "time" : {
        "start" : 1545687361778,
        "stop" : 1545687361778,
        "duration" : 0
      }
    } ]
  },
  "cb171b9693e137d4d67295d80272db8d" : {
    "statistic" : {
      "failed" : 0,
      "broken" : 1,
      "skipped" : 0,
      "passed" : 0,
      "unknown" : 0,
      "total" : 1
    },
    "items" : [ {
      "uid" : "946234a9fddc7410",
      "status" : "broken",
      "statusDetails" : "Step \"the result \"15\" should be displayed\" is not defined. You can ignore this error by setting\n                                              cucumberOpts.ignoreUndefinedDefinitions as true.",
      "time" : {
        "start" : 1545687361769,
        "stop" : 1545687361769,
        "duration" : 0
      }
    } ]
  },
  "46adbac14eb24d0720d1dab8b3828235" : {
    "statistic" : {
      "failed" : 0,
      "broken" : 0,
      "skipped" : 0,
      "passed" : 1,
      "unknown" : 0,
      "total" : 1
    },
    "items" : [ {
      "uid" : "b3a95e087c550f3d",
      "status" : "passed",
      "time" : {
        "start" : 1545912561382,
        "stop" : 1545912561986,
        "duration" : 604
      }
    } ]
  },
  "cdb93756bf1f173f076432df14a26783" : {
    "statistic" : {
      "failed" : 0,
      "broken" : 0,
      "skipped" : 0,
      "passed" : 1,
      "unknown" : 0,
      "total" : 1
    },
    "items" : [ {
      "uid" : "5acf5906ca2a5b0b",
      "status" : "passed",
      "time" : {
        "start" : 1545912541364,
        "stop" : 1545912561381,
        "duration" : 20017
      }
    } ]
  },
  "a3539dd742aba291511f3ad243326f9a" : {
    "statistic" : {
      "failed" : 0,
      "broken" : 0,
      "skipped" : 0,
      "passed" : 1,
      "unknown" : 0,
      "total" : 1
    },
    "items" : [ {
      "uid" : "2ee63c34c81ebdd1",
      "status" : "passed",
      "time" : {
        "start" : 1545687361763,
        "stop" : 1545687361763,
        "duration" : 0
      }
    } ]
  },
  "7a9eb55042dbef3d12f145b36f593c42" : {
    "statistic" : {
      "failed" : 0,
      "broken" : 0,
      "skipped" : 0,
      "passed" : 1,
      "unknown" : 0,
      "total" : 1
    },
    "items" : [ {
      "uid" : "53e1b2499e9749ab",
      "status" : "passed",
      "time" : {
        "start" : 1545687361746,
        "stop" : 1545687361749,
        "duration" : 3
      }
    } ]
  },
  "7645195005f2163e1a25eb6388f879ae" : {
    "statistic" : {
      "failed" : 0,
      "broken" : 0,
      "skipped" : 0,
      "passed" : 1,
      "unknown" : 0,
      "total" : 1
    },
    "items" : [ {
      "uid" : "6681a5a395d0a1f8",
      "status" : "passed",
      "time" : {
        "start" : 1545687361749,
        "stop" : 1545687361749,
        "duration" : 0
      }
    } ]
  },
  "ca7ae71e18b689d5b1a846741dee75ea" : {
    "statistic" : {
      "failed" : 0,
      "broken" : 1,
      "skipped" : 0,
      "passed" : 0,
      "unknown" : 0,
      "total" : 1
    },
    "items" : [ {
      "uid" : "17c235dc3cb9f9c",
      "status" : "broken",
      "statusDetails" : "Step \"the result \"3\" should be displayed\" is not defined. You can ignore this error by setting\n                                              cucumberOpts.ignoreUndefinedDefinitions as true.",
      "time" : {
        "start" : 1545687361775,
        "stop" : 1545687361776,
        "duration" : 1
      }
    } ]
  }
}