{
    "status": 0,
    "value": "Read carefully the tutorial below. It will only take a couple of minutes and you will find useful information in order to use this App-widget.",
    "sessionId": "c15d8685-c5ba-4951-af4c-ff3c460aecbb"
}